{
  "baby_trigger_item": null,
  "id": 1,
  "chain": {
    "evolution_details": [],
    "evolves_to": [
      {
        "evolution_details": [
          {
            "min_level": 16,
            "min_beauty": null,
            "time_of_day": "",
            "gender": null,
            "relative_physical_stats": null,
            "needs_overworld_rain": false,
            "turn_upside_down": false,
            "item": null,
            "trigger": {
              "url": "https:\/\/pokeapi.co\/api\/v2\/evolution-trigger\/1\/",
              "name": "level-up"
            },
            "known_move_type": null,
            "min_affection": null,
            "party_type": null,
            "trade_species": null,
            "party_species": null,
            "min_happiness": null,
            "held_item": null,
            "known_move": null,
            "location": null
          }
        ],
        "evolves_to": [
          {
            "evolution_details": [
              {
                "min_level": 32,
                "min_beauty": null,
                "time_of_day": "",
                "gender": null,
                "relative_physical_stats": null,
                "needs_overworld_rain": false,
                "turn_upside_down": false,
                "item": null,
                "trigger": {
                  "url": "https:\/\/pokeapi.co\/api\/v2\/evolution-trigger\/1\/",
                  "name": "level-up"
                },
                "known_move_type": null,
                "min_affection": null,
                "party_type": null,
                "trade_species": null,
                "party_species": null,
                "min_happiness": null,
                "held_item": null,
                "known_move": null,
                "location": null
              }
            ],
            "evolves_to": [],
            "is_baby": false,
            "species": {
              "url": "https:\/\/pokeapi.co\/api\/v2\/pokemon-species\/3\/",
              "name": "venusaur"
            }
          }
        ],
        "is_baby": false,
        "species": {
          "url": "https:\/\/pokeapi.co\/api\/v2\/pokemon-species\/2\/",
          "name": "ivysaur"
        }
      }
    ],
    "is_baby": false,
    "species": {
      "url": "https:\/\/pokeapi.co\/api\/v2\/pokemon-species\/1\/",
      "name": "bulbasaur"
    }
  }
}