{
  "names": [
    {
      "name": "south, towards Viridian City",
      "language": {
        "url": "https:\/\/pokeapi.co\/api\/v2\/language\/9\/",
        "name": "en"
      }
    }
  ],
  "name": "kanto-route-2-south-towards-viridian-city",
  "encounter_method_rates": [
    {
      "encounter_method": {
        "url": "https:\/\/pokeapi.co\/api\/v2\/encounter-method\/1\/",
        "name": "walk"
      },
      "version_details": [
        {
          "rate": 20,
          "version": {
            "url": "https:\/\/pokeapi.co\/api\/v2\/version\/16\/",
            "name": "soulsilver"
          }
        },
        {
          "rate": 20,
          "version": {
            "url": "https:\/\/pokeapi.co\/api\/v2\/version\/15\/",
            "name": "heartgold"
          }
        },
        {
          "rate": 21,
          "version": {
            "url": "https:\/\/pokeapi.co\/api\/v2\/version\/11\/",
            "name": "leafgreen"
          }
        },
        {
          "rate": 21,
          "version": {
            "url": "https:\/\/pokeapi.co\/api\/v2\/version\/10\/",
            "name": "firered"
          }
        }
      ]
    }
  ],
  "location": {
    "url": "https:\/\/pokeapi.co\/api\/v2\/location\/99\/",
    "name": "kanto-route-2"
  },
  "pokemon_encounters": [
    {
      "version_details": [
        {
          "max_chance": 15,
          "version": {
            "url": "https:\/\/pokeapi.co\/api\/v2\/version\/2\/",
            "name": "blue"
          },
          "encounter_details": [
            {
              "min_level": 3,
              "max_level": 3,
              "condition_values": [],
              "chance": 10,
              "method": {
                "url": "https:\/\/pokeapi.co\/api\/v2\/encounter-method\/1\/",
                "name": "walk"
              }
            },
            {
              "min_level": 4,
              "max_level": 4,
              "condition_values": [],
              "chance": 4,
              "method": {
                "url": "https:\/\/pokeapi.co\/api\/v2\/encounter-method\/1\/",
                "name": "walk"
              }
            },
            {
              "min_level": 5,
              "max_level": 5,
              "condition_values": [],
              "chance": 1,
              "method": {
                "url": "https:\/\/pokeapi.co\/api\/v2\/encounter-method\/1\/",
                "name": "walk"
              }
            }
          ]
        },
        {
          "max_chance": 5,
          "version": {
            "url": "https:\/\/pokeapi.co\/api\/v2\/version\/10\/",
            "name": "firered"
          },
          "encounter_details": [
            {
              "min_level": 4,
              "max_level": 4,
              "condition_values": [],
              "chance": 4,
              "method": {
                "url": "https:\/\/pokeapi.co\/api\/v2\/encounter-method\/1\/",
                "name": "walk"
              }
            },
            {
              "min_level": 5,
              "max_level": 5,
              "condition_values": [],
              "chance": 1,
              "method": {
                "url": "https:\/\/pokeapi.co\/api\/v2\/encounter-method\/1\/",
                "name": "walk"
              }
            }
          ]
        },
        {
          "max_chance": 5,
          "version": {
            "url": "https:\/\/pokeapi.co\/api\/v2\/version\/11\/",
            "name": "leafgreen"
          },
          "encounter_details": [
            {
              "min_level": 4,
              "max_level": 4,
              "condition_values": [],
              "chance": 4,
              "method": {
                "url": "https:\/\/pokeapi.co\/api\/v2\/encounter-method\/1\/",
                "name": "walk"
              }
            },
            {
              "min_level": 5,
              "max_level": 5,
              "condition_values": [],
              "chance": 1,
              "method": {
                "url": "https:\/\/pokeapi.co\/api\/v2\/encounter-method\/1\/",
                "name": "walk"
              }
            }
          ]
        },
        {
          "max_chance": 62,
          "version": {
            "url": "https:\/\/pokeapi.co\/api\/v2\/version\/15\/",
            "name": "heartgold"
          },
          "encounter_details": [
            {
              "min_level": 3,
              "max_level": 3,
              "condition_values": [
                {
                  "url": "https:\/\/pokeapi.co\/api\/v2\/encounter-condition-value\/3\/",
                  "name": "time-morning"
                }
              ],
              "chance": 20,
              "method": {
                "url": "https:\/\/pokeapi.co\/api\/v2\/encounter-method\/1\/",
                "name": "walk"
              }
            },
            {
              "min_level": 3,
              "max_level": 3,
              "condition_values": [
                {
                  "url": "https:\/\/pokeapi.co\/api\/v2\/encounter-condition-value\/4\/",
                  "name": "time-day"
                }
              ],
              "chance": 20,
              "method": {
                "url": "https:\/\/pokeapi.co\/api\/v2\/encounter-method\/1\/",
                "name": "walk"
              }
            },
            {
              "min_level": 3,
              "max_level": 3,
              "condition_values": [
                {
                  "url": "https:\/\/pokeapi.co\/api\/v2\/encounter-condition-value\/14\/",
                  "name": "radio-off"
                },
                {
                  "url": "https:\/\/pokeapi.co\/api\/v2\/encounter-condition-value\/3\/",
                  "name": "time-morning"
                }
              ],
              "chance": 10,
              "method": {
                "url": "https:\/\/pokeapi.co\/api\/v2\/encounter-method\/1\/",
                "name": "walk"
              }
            },
            {
              "min_level": 3,
              "max_level": 3,
              "condition_values": [
                {
                  "url": "https:\/\/pokeapi.co\/api\/v2\/encounter-condition-value\/14\/",
                  "name": "radio-off"
                },
                {
                  "url": "https:\/\/pokeapi.co\/api\/v2\/encounter-condition-value\/4\/",
                  "name": "time-day"
                }
              ],
              "chance": 10,
              "method": {
                "url": "https:\/\/pokeapi.co\/api\/v2\/encounter-method\/1\/",
                "name": "walk"
              }
            },
            {
              "min_level": 4,
              "max_level": 4,
              "condition_values": [
                {
                  "url": "https:\/\/pokeapi.co\/api\/v2\/encounter-condition-value\/3\/",
                  "name": "time-morning"
                }
              ],
              "chance": 1,
              "method": {
                "url": "https:\/\/pokeapi.co\/api\/v2\/encounter-method\/1\/",
                "name": "walk"
              }
            },
            {
              "min_level": 4,
              "max_level": 4,
              "condition_values": [
                {
                  "url": "https:\/\/pokeapi.co\/api\/v2\/encounter-condition-value\/4\/",
                  "name": "time-day"
                }
              ],
              "chance": 1,
              "method": {
                "url": "https:\/\/pokeapi.co\/api\/v2\/encounter-method\/1\/",
                "name": "walk"
              }
            }
          ]
        }
      ],
      "pokemon": {
        "url": "https:\/\/pokeapi.co\/api\/v2\/pokemon\/10\/",
        "name": "caterpie"
      }
    },
    {
      "version_details": [
        {
          "max_chance": 40,
          "version": {
            "url": "https:\/\/pokeapi.co\/api\/v2\/version\/15\/",
            "name": "heartgold"
          },
          "encounter_details": [
            {
              "min_level": 5,
              "max_level": 5,
              "condition_values": [
                {
                  "url": "https:\/\/pokeapi.co\/api\/v2\/encounter-condition-value\/14\/",
                  "name": "radio-off"
                },
                {
                  "url": "https:\/\/pokeapi.co\/api\/v2\/encounter-condition-value\/3\/",
                  "name": "time-morning"
                }
              ],
              "chance": 10,
              "method": {
                "url": "https:\/\/pokeapi.co\/api\/v2\/encounter-method\/1\/",
                "name": "walk"
              }
            },
            {
              "min_level": 5,
              "max_level": 5,
              "condition_values": [
                {
                  "url": "https:\/\/pokeapi.co\/api\/v2\/encounter-condition-value\/14\/",
                  "name": "radio-off"
                },
                {
                  "url": "https:\/\/pokeapi.co\/api\/v2\/encounter-condition-value\/4\/",
                  "name": "time-day"
                }
              ],
              "chance": 10,
              "method": {
                "url": "https:\/\/pokeapi.co\/api\/v2\/encounter-method\/1\/",
                "name": "walk"
              }
            },
            {
              "min_level": 5,
              "max_level": 5,
              "condition_values": [
                {
                  "url": "https:\/\/pokeapi.co\/api\/v2\/encounter-condition-value\/14\/",
                  "name": "radio-off"
                },
                {
                  "url": "https:\/\/pokeapi.co\/api\/v2\/encounter-condition-value\/3\/",
                  "name": "time-morning"
                }
              ],
              "chance": 10,
              "method": {
                "url": "https:\/\/pokeapi.co\/api\/v2\/encounter-method\/1\/",
                "name": "walk"
              }
            },
            {
              "min_level": 5,
              "max_level": 5,
              "condition_values": [
                {
                  "url": "https:\/\/pokeapi.co\/api\/v2\/encounter-condition-value\/14\/",
                  "name": "radio-off"
                },
                {
                  "url": "https:\/\/pokeapi.co\/api\/v2\/encounter-condition-value\/4\/",
                  "name": "time-day"
                }
              ],
              "chance": 10,
              "method": {
                "url": "https:\/\/pokeapi.co\/api\/v2\/encounter-method\/1\/",
                "name": "walk"
              }
            }
          ]
        }
      ],
      "pokemon": {
        "url": "https:\/\/pokeapi.co\/api\/v2\/pokemon\/11\/",
        "name": "metapod"
      }
    },
    {
      "version_details": [
        {
          "max_chance": 10,
          "version": {
            "url": "https:\/\/pokeapi.co\/api\/v2\/version\/15\/",
            "name": "heartgold"
          },
          "encounter_details": [
            {
              "min_level": 7,
              "max_level": 7,
              "condition_values": [
                {
                  "url": "https:\/\/pokeapi.co\/api\/v2\/encounter-condition-value\/3\/",
                  "name": "time-morning"
                }
              ],
              "chance": 5,
              "method": {
                "url": "https:\/\/pokeapi.co\/api\/v2\/encounter-method\/1\/",
                "name": "walk"
              }
            },
            {
              "min_level": 8,
              "max_level": 8,
              "condition_values": [
                {
                  "url": "https:\/\/pokeapi.co\/api\/v2\/encounter-condition-value\/3\/",
                  "name": "time-morning"
                }
              ],
              "chance": 5,
              "method": {
                "url": "https:\/\/pokeapi.co\/api\/v2\/encounter-method\/1\/",
                "name": "walk"
              }
            }
          ]
        }
      ],
      "pokemon": {
        "url": "https:\/\/pokeapi.co\/api\/v2\/pokemon\/12\/",
        "name": "butterfree"
      }
    },
    {
      "version_details": [
        {
          "max_chance": 15,
          "version": {
            "url": "https:\/\/pokeapi.co\/api\/v2\/version\/1\/",
            "name": "red"
          },
          "encounter_details": [
            {
              "min_level": 3,
              "max_level": 3,
              "condition_values": [],
              "chance": 10,
              "method": {
                "url": "https:\/\/pokeapi.co\/api\/v2\/encounter-method\/1\/",
                "name": "walk"
              }
            },
            {
              "min_level": 4,
              "max_level": 4,
              "condition_values": [],
              "chance": 4,
              "method": {
                "url": "https:\/\/pokeapi.co\/api\/v2\/encounter-method\/1\/",
                "name": "walk"
              }
            },
            {
              "min_level": 5,
              "max_level": 5,
              "condition_values": [],
              "chance": 1,
              "method": {
                "url": "https:\/\/pokeapi.co\/api\/v2\/encounter-method\/1\/",
                "name": "walk"
              }
            }
          ]
        },
        {
          "max_chance": 5,
          "version": {
            "url": "https:\/\/pokeapi.co\/api\/v2\/version\/10\/",
            "name": "firered"
          },
          "encounter_details": [
            {
              "min_level": 4,
              "max_level": 4,
              "condition_values": [],
              "chance": 4,
              "method": {
                "url": "https:\/\/pokeapi.co\/api\/v2\/encounter-method\/1\/",
                "name": "walk"
              }
            },
            {
              "min_level": 5,
              "max_level": 5,
              "condition_values": [],
              "chance": 1,
              "method": {
                "url": "https:\/\/pokeapi.co\/api\/v2\/encounter-method\/1\/",
                "name": "walk"
              }
            }
          ]
        },
        {
          "max_chance": 5,
          "version": {
            "url": "https:\/\/pokeapi.co\/api\/v2\/version\/11\/",
            "name": "leafgreen"
          },
          "encounter_details": [
            {
              "min_level": 4,
              "max_level": 4,
              "condition_values": [],
              "chance": 4,
              "method": {
                "url": "https:\/\/pokeapi.co\/api\/v2\/encounter-method\/1\/",
                "name": "walk"
              }
            },
            {
              "min_level": 5,
              "max_level": 5,
              "condition_values": [],
              "chance": 1,
              "method": {
                "url": "https:\/\/pokeapi.co\/api\/v2\/encounter-method\/1\/",
                "name": "walk"
              }
            }
          ]
        },
        {
          "max_chance": 51,
          "version": {
            "url": "https:\/\/pokeapi.co\/api\/v2\/version\/16\/",
            "name": "soulsilver"
          },
          "encounter_details": [
            {
              "min_level": 3,
              "max_level": 3,
              "condition_values": [
                {
                  "url": "https:\/\/pokeapi.co\/api\/v2\/encounter-condition-value\/4\/",
                  "name": "time-day"
                }
              ],
              "chance": 20,
              "method": {
                "url": "https:\/\/pokeapi.co\/api\/v2\/encounter-method\/1\/",
                "name": "walk"
              }
            },
            {
              "min_level": 3,
              "max_level": 3,
              "condition_values": [
                {
                  "url": "https:\/\/pokeapi.co\/api\/v2\/encounter-condition-value\/14\/",
                  "name": "radio-off"
                },
                {
                  "url": "https:\/\/pokeapi.co\/api\/v2\/encounter-condition-value\/3\/",
                  "name": "time-morning"
                }
              ],
              "chance": 10,
              "method": {
                "url": "https:\/\/pokeapi.co\/api\/v2\/encounter-method\/1\/",
                "name": "walk"
              }
            },
            {
              "min_level": 3,
              "max_level": 3,
              "condition_values": [
                {
                  "url": "https:\/\/pokeapi.co\/api\/v2\/encounter-condition-value\/14\/",
                  "name": "radio-off"
                },
                {
                  "url": "https:\/\/pokeapi.co\/api\/v2\/encounter-condition-value\/4\/",
                  "name": "time-day"
                }
              ],
              "chance": 10,
              "method": {
                "url": "https:\/\/pokeapi.co\/api\/v2\/encounter-method\/1\/",
                "name": "walk"
              }
            },
            {
              "min_level": 5,
              "max_level": 5,
              "condition_values": [
                {
                  "url": "https:\/\/pokeapi.co\/api\/v2\/encounter-condition-value\/14\/",
                  "name": "radio-off"
                },
                {
                  "url": "https:\/\/pokeapi.co\/api\/v2\/encounter-condition-value\/5\/",
                  "name": "time-night"
                }
              ],
              "chance": 10,
              "method": {
                "url": "https:\/\/pokeapi.co\/api\/v2\/encounter-method\/1\/",
                "name": "walk"
              }
            },
            {
              "min_level": 4,
              "max_level": 4,
              "condition_values": [],
              "chance": 1,
              "method": {
                "url": "https:\/\/pokeapi.co\/api\/v2\/encounter-method\/1\/",
                "name": "walk"
              }
            }
          ]
        }
      ],
      "pokemon": {
        "url": "https:\/\/pokeapi.co\/api\/v2\/pokemon\/13\/",
        "name": "weedle"
      }
    },
    {
      "version_details": [
        {
          "max_chance": 51,
          "version": {
            "url": "https:\/\/pokeapi.co\/api\/v2\/version\/16\/",
            "name": "soulsilver"
          },
          "encounter_details": [
            {
              "min_level": 3,
              "max_level": 3,
              "condition_values": [
                {
                  "url": "https:\/\/pokeapi.co\/api\/v2\/encounter-condition-value\/14\/",
                  "name": "radio-off"
                },
                {
                  "url": "https:\/\/pokeapi.co\/api\/v2\/encounter-condition-value\/5\/",
                  "name": "time-night"
                }
              ],
              "chance": 10,
              "method": {
                "url": "https:\/\/pokeapi.co\/api\/v2\/encounter-method\/1\/",
                "name": "walk"
              }
            },
            {
              "min_level": 5,
              "max_level": 5,
              "condition_values": [
                {
                  "url": "https:\/\/pokeapi.co\/api\/v2\/encounter-condition-value\/14\/",
                  "name": "radio-off"
                },
                {
                  "url": "https:\/\/pokeapi.co\/api\/v2\/encounter-condition-value\/3\/",
                  "name": "time-morning"
                }
              ],
              "chance": 10,
              "method": {
                "url": "https:\/\/pokeapi.co\/api\/v2\/encounter-method\/1\/",
                "name": "walk"
              }
            },
            {
              "min_level": 5,
              "max_level": 5,
              "condition_values": [
                {
                  "url": "https:\/\/pokeapi.co\/api\/v2\/encounter-condition-value\/14\/",
                  "name": "radio-off"
                },
                {
                  "url": "https:\/\/pokeapi.co\/api\/v2\/encounter-condition-value\/4\/",
                  "name": "time-day"
                }
              ],
              "chance": 10,
              "method": {
                "url": "https:\/\/pokeapi.co\/api\/v2\/encounter-method\/1\/",
                "name": "walk"
              }
            },
            {
              "min_level": 5,
              "max_level": 5,
              "condition_values": [
                {
                  "url": "https:\/\/pokeapi.co\/api\/v2\/encounter-condition-value\/14\/",
                  "name": "radio-off"
                },
                {
                  "url": "https:\/\/pokeapi.co\/api\/v2\/encounter-condition-value\/3\/",
                  "name": "time-morning"
                }
              ],
              "chance": 10,
              "method": {
                "url": "https:\/\/pokeapi.co\/api\/v2\/encounter-method\/1\/",
                "name": "walk"
              }
            },
            {
              "min_level": 5,
              "max_level": 5,
              "condition_values": [
                {
                  "url": "https:\/\/pokeapi.co\/api\/v2\/encounter-condition-value\/14\/",
                  "name": "radio-off"
                },
                {
                  "url": "https:\/\/pokeapi.co\/api\/v2\/encounter-condition-value\/4\/",
                  "name": "time-day"
                }
              ],
              "chance": 10,
              "method": {
                "url": "https:\/\/pokeapi.co\/api\/v2\/encounter-method\/1\/",
                "name": "walk"
              }
            },
            {
              "min_level": 7,
              "max_level": 7,
              "condition_values": [
                {
                  "url": "https:\/\/pokeapi.co\/api\/v2\/encounter-condition-value\/5\/",
                  "name": "time-night"
                }
              ],
              "chance": 1,
              "method": {
                "url": "https:\/\/pokeapi.co\/api\/v2\/encounter-method\/1\/",
                "name": "walk"
              }
            }
          ]
        }
      ],
      "pokemon": {
        "url": "https:\/\/pokeapi.co\/api\/v2\/pokemon\/14\/",
        "name": "kakuna"
      }
    },
    {
      "version_details": [
        {
          "max_chance": 14,
          "version": {
            "url": "https:\/\/pokeapi.co\/api\/v2\/version\/16\/",
            "name": "soulsilver"
          },
          "encounter_details": [
            {
              "min_level": 7,
              "max_level": 7,
              "condition_values": [
                {
                  "url": "https:\/\/pokeapi.co\/api\/v2\/encounter-condition-value\/3\/",
                  "name": "time-morning"
                }
              ],
              "chance": 5,
              "method": {
                "url": "https:\/\/pokeapi.co\/api\/v2\/encounter-method\/1\/",
                "name": "walk"
              }
            },
            {
              "min_level": 7,
              "max_level": 7,
              "condition_values": [
                {
                  "url": "https:\/\/pokeapi.co\/api\/v2\/encounter-condition-value\/3\/",
                  "name": "time-morning"
                }
              ],
              "chance": 5,
              "method": {
                "url": "https:\/\/pokeapi.co\/api\/v2\/encounter-method\/1\/",
                "name": "walk"
              }
            },
            {
              "min_level": 10,
              "max_level": 10,
              "condition_values": [
                {
                  "url": "https:\/\/pokeapi.co\/api\/v2\/encounter-condition-value\/5\/",
                  "name": "time-night"
                }
              ],
              "chance": 4,
              "method": {
                "url": "https:\/\/pokeapi.co\/api\/v2\/encounter-method\/1\/",
                "name": "walk"
              }
            }
          ]
        }
      ],
      "pokemon": {
        "url": "https:\/\/pokeapi.co\/api\/v2\/pokemon\/15\/",
        "name": "beedrill"
      }
    },
    {
      "version_details": [
        {
          "max_chance": 45,
          "version": {
            "url": "https:\/\/pokeapi.co\/api\/v2\/version\/1\/",
            "name": "red"
          },
          "encounter_details": [
            {
              "min_level": 3,
              "max_level": 3,
              "condition_values": [],
              "chance": 20,
              "method": {
                "url": "https:\/\/pokeapi.co\/api\/v2\/encounter-method\/1\/",
                "name": "walk"
              }
            },
            {
              "min_level": 4,
              "max_level": 4,
              "condition_values": [],
              "chance": 15,
              "method": {
                "url": "https:\/\/pokeapi.co\/api\/v2\/encounter-method\/1\/",
                "name": "walk"
              }
            },
            {
              "min_level": 5,
              "max_level": 5,
              "condition_values": [],
              "chance": 10,
              "method": {
                "url": "https:\/\/pokeapi.co\/api\/v2\/encounter-method\/1\/",
                "name": "walk"
              }
            }
          ]
        },
        {
          "max_chance": 45,
          "version": {
            "url": "https:\/\/pokeapi.co\/api\/v2\/version\/2\/",
            "name": "blue"
          },
          "encounter_details": [
            {
              "min_level": 3,
              "max_level": 3,
              "condition_values": [],
              "chance": 20,
              "method": {
                "url": "https:\/\/pokeapi.co\/api\/v2\/encounter-method\/1\/",
                "name": "walk"
              }
            },
            {
              "min_level": 4,
              "max_level": 4,
              "condition_values": [],
              "chance": 15,
              "method": {
                "url": "https:\/\/pokeapi.co\/api\/v2\/encounter-method\/1\/",
                "name": "walk"
              }
            },
            {
              "min_level": 5,
              "max_level": 5,
              "condition_values": [],
              "chance": 10,
              "method": {
                "url": "https:\/\/pokeapi.co\/api\/v2\/encounter-method\/1\/",
                "name": "walk"
              }
            }
          ]
        },
        {
          "max_chance": 35,
          "version": {
            "url": "https:\/\/pokeapi.co\/api\/v2\/version\/3\/",
            "name": "yellow"
          },
          "encounter_details": [
            {
              "min_level": 3,
              "max_level": 3,
              "condition_values": [],
              "chance": 20,
              "method": {
                "url": "https:\/\/pokeapi.co\/api\/v2\/encounter-method\/1\/",
                "name": "walk"
              }
            },
            {
              "min_level": 5,
              "max_level": 5,
              "condition_values": [],
              "chance": 10,
              "method": {
                "url": "https:\/\/pokeapi.co\/api\/v2\/encounter-method\/1\/",
                "name": "walk"
              }
            },
            {
              "min_level": 7,
              "max_level": 7,
              "condition_values": [],
              "chance": 4,
              "method": {
                "url": "https:\/\/pokeapi.co\/api\/v2\/encounter-method\/1\/",
                "name": "walk"
              }
            },
            {
              "min_level": 7,
              "max_level": 7,
              "condition_values": [],
              "chance": 1,
              "method": {
                "url": "https:\/\/pokeapi.co\/api\/v2\/encounter-method\/1\/",
                "name": "walk"
              }
            }
          ]
        },
        {
          "max_chance": 45,
          "version": {
            "url": "https:\/\/pokeapi.co\/api\/v2\/version\/10\/",
            "name": "firered"
          },
          "encounter_details": [
            {
              "min_level": 3,
              "max_level": 3,
              "condition_values": [],
              "chance": 20,
              "method": {
                "url": "https:\/\/pokeapi.co\/api\/v2\/encounter-method\/1\/",
                "name": "walk"
              }
            },
            {
              "min_level": 4,
              "max_level": 4,
              "condition_values": [],
              "chance": 10,
              "method": {
                "url": "https:\/\/pokeapi.co\/api\/v2\/encounter-method\/1\/",
                "name": "walk"
              }
            },
            {
              "min_level": 2,
              "max_level": 2,
              "condition_values": [],
              "chance": 10,
              "method": {
                "url": "https:\/\/pokeapi.co\/api\/v2\/encounter-method\/1\/",
                "name": "walk"
              }
            },
            {
              "min_level": 5,
              "max_level": 5,
              "condition_values": [],
              "chance": 5,
              "method": {
                "url": "https:\/\/pokeapi.co\/api\/v2\/encounter-method\/1\/",
                "name": "walk"
              }
            }
          ]
        },
        {
          "max_chance": 45,
          "version": {
            "url": "https:\/\/pokeapi.co\/api\/v2\/version\/11\/",
            "name": "leafgreen"
          },
          "encounter_details": [
            {
              "min_level": 3,
              "max_level": 3,
              "condition_values": [],
              "chance": 20,
              "method": {
                "url": "https:\/\/pokeapi.co\/api\/v2\/encounter-method\/1\/",
                "name": "walk"
              }
            },
            {
              "min_level": 4,
              "max_level": 4,
              "condition_values": [],
              "chance": 10,
              "method": {
                "url": "https:\/\/pokeapi.co\/api\/v2\/encounter-method\/1\/",
                "name": "walk"
              }
            },
            {
              "min_level": 2,
              "max_level": 2,
              "condition_values": [],
              "chance": 10,
              "method": {
                "url": "https:\/\/pokeapi.co\/api\/v2\/encounter-method\/1\/",
                "name": "walk"
              }
            },
            {
              "min_level": 5,
              "max_level": 5,
              "condition_values": [],
              "chance": 5,
              "method": {
                "url": "https:\/\/pokeapi.co\/api\/v2\/encounter-method\/1\/",
                "name": "walk"
              }
            }
          ]
        },
        {
          "max_chance": 70,
          "version": {
            "url": "https:\/\/pokeapi.co\/api\/v2\/version\/15\/",
            "name": "heartgold"
          },
          "encounter_details": [
            {
              "min_level": 3,
              "max_level": 3,
              "condition_values": [
                {
                  "url": "https:\/\/pokeapi.co\/api\/v2\/encounter-condition-value\/3\/",
                  "name": "time-morning"
                }
              ],
              "chance": 20,
              "method": {
                "url": "https:\/\/pokeapi.co\/api\/v2\/encounter-method\/1\/",
                "name": "walk"
              }
            },
            {
              "min_level": 3,
              "max_level": 3,
              "condition_values": [
                {
                  "url": "https:\/\/pokeapi.co\/api\/v2\/encounter-condition-value\/4\/",
                  "name": "time-day"
                }
              ],
              "chance": 20,
              "method": {
                "url": "https:\/\/pokeapi.co\/api\/v2\/encounter-method\/1\/",
                "name": "walk"
              }
            },
            {
              "min_level": 3,
              "max_level": 3,
              "condition_values": [
                {
                  "url": "https:\/\/pokeapi.co\/api\/v2\/encounter-condition-value\/14\/",
                  "name": "radio-off"
                },
                {
                  "url": "https:\/\/pokeapi.co\/api\/v2\/encounter-condition-value\/3\/",
                  "name": "time-morning"
                }
              ],
              "chance": 10,
              "method": {
                "url": "https:\/\/pokeapi.co\/api\/v2\/encounter-method\/1\/",
                "name": "walk"
              }
            },
            {
              "min_level": 3,
              "max_level": 3,
              "condition_values": [
                {
                  "url": "https:\/\/pokeapi.co\/api\/v2\/encounter-condition-value\/14\/",
                  "name": "radio-off"
                },
                {
                  "url": "https:\/\/pokeapi.co\/api\/v2\/encounter-condition-value\/4\/",
                  "name": "time-day"
                }
              ],
              "chance": 10,
              "method": {
                "url": "https:\/\/pokeapi.co\/api\/v2\/encounter-method\/1\/",
                "name": "walk"
              }
            },
            {
              "min_level": 7,
              "max_level": 7,
              "condition_values": [
                {
                  "url": "https:\/\/pokeapi.co\/api\/v2\/encounter-condition-value\/4\/",
                  "name": "time-day"
                }
              ],
              "chance": 5,
              "method": {
                "url": "https:\/\/pokeapi.co\/api\/v2\/encounter-method\/1\/",
                "name": "walk"
              }
            },
            {
              "min_level": 8,
              "max_level": 8,
              "condition_values": [
                {
                  "url": "https:\/\/pokeapi.co\/api\/v2\/encounter-condition-value\/4\/",
                  "name": "time-day"
                }
              ],
              "chance": 5,
              "method": {
                "url": "https:\/\/pokeapi.co\/api\/v2\/encounter-method\/1\/",
                "name": "walk"
              }
            }
          ]
        },
        {
          "max_chance": 60,
          "version": {
            "url": "https:\/\/pokeapi.co\/api\/v2\/version\/16\/",
            "name": "soulsilver"
          },
          "encounter_details": [
            {
              "min_level": 3,
              "max_level": 3,
              "condition_values": [
                {
                  "url": "https:\/\/pokeapi.co\/api\/v2\/encounter-condition-value\/3\/",
                  "name": "time-morning"
                }
              ],
              "chance": 20,
              "method": {
                "url": "https:\/\/pokeapi.co\/api\/v2\/encounter-method\/1\/",
                "name": "walk"
              }
            },
            {
              "min_level": 3,
              "max_level": 3,
              "condition_values": [
                {
                  "url": "https:\/\/pokeapi.co\/api\/v2\/encounter-condition-value\/4\/",
                  "name": "time-day"
                }
              ],
              "chance": 20,
              "method": {
                "url": "https:\/\/pokeapi.co\/api\/v2\/encounter-method\/1\/",
                "name": "walk"
              }
            },
            {
              "min_level": 3,
              "max_level": 3,
              "condition_values": [
                {
                  "url": "https:\/\/pokeapi.co\/api\/v2\/encounter-condition-value\/14\/",
                  "name": "radio-off"
                },
                {
                  "url": "https:\/\/pokeapi.co\/api\/v2\/encounter-condition-value\/4\/",
                  "name": "time-day"
                }
              ],
              "chance": 10,
              "method": {
                "url": "https:\/\/pokeapi.co\/api\/v2\/encounter-method\/1\/",
                "name": "walk"
              }
            },
            {
              "min_level": 7,
              "max_level": 7,
              "condition_values": [
                {
                  "url": "https:\/\/pokeapi.co\/api\/v2\/encounter-condition-value\/4\/",
                  "name": "time-day"
                }
              ],
              "chance": 5,
              "method": {
                "url": "https:\/\/pokeapi.co\/api\/v2\/encounter-method\/1\/",
                "name": "walk"
              }
            },
            {
              "min_level": 7,
              "max_level": 7,
              "condition_values": [
                {
                  "url": "https:\/\/pokeapi.co\/api\/v2\/encounter-condition-value\/4\/",
                  "name": "time-day"
                }
              ],
              "chance": 5,
              "method": {
                "url": "https:\/\/pokeapi.co\/api\/v2\/encounter-method\/1\/",
                "name": "walk"
              }
            }
          ]
        }
      ],
      "pokemon": {
        "url": "https:\/\/pokeapi.co\/api\/v2\/pokemon\/16\/",
        "name": "pidgey"
      }
    },
    {
      "version_details": [
        {
          "max_chance": 14,
          "version": {
            "url": "https:\/\/pokeapi.co\/api\/v2\/version\/15\/",
            "name": "heartgold"
          },
          "encounter_details": [
            {
              "min_level": 7,
              "max_level": 7,
              "condition_values": [
                {
                  "url": "https:\/\/pokeapi.co\/api\/v2\/encounter-condition-value\/3\/",
                  "name": "time-morning"
                }
              ],
              "chance": 4,
              "method": {
                "url": "https:\/\/pokeapi.co\/api\/v2\/encounter-method\/1\/",
                "name": "walk"
              }
            },
            {
              "min_level": 7,
              "max_level": 7,
              "condition_values": [
                {
                  "url": "https:\/\/pokeapi.co\/api\/v2\/encounter-condition-value\/4\/",
                  "name": "time-day"
                }
              ],
              "chance": 4,
              "method": {
                "url": "https:\/\/pokeapi.co\/api\/v2\/encounter-method\/1\/",
                "name": "walk"
              }
            },
            {
              "min_level": 10,
              "max_level": 10,
              "condition_values": [
                {
                  "url": "https:\/\/pokeapi.co\/api\/v2\/encounter-condition-value\/4\/",
                  "name": "time-day"
                }
              ],
              "chance": 4,
              "method": {
                "url": "https:\/\/pokeapi.co\/api\/v2\/encounter-method\/1\/",
                "name": "walk"
              }
            },
            {
              "min_level": 7,
              "max_level": 7,
              "condition_values": [
                {
                  "url": "https:\/\/pokeapi.co\/api\/v2\/encounter-condition-value\/3\/",
                  "name": "time-morning"
                }
              ],
              "chance": 1,
              "method": {
                "url": "https:\/\/pokeapi.co\/api\/v2\/encounter-method\/1\/",
                "name": "walk"
              }
            },
            {
              "min_level": 7,
              "max_level": 7,
              "condition_values": [
                {
                  "url": "https:\/\/pokeapi.co\/api\/v2\/encounter-condition-value\/4\/",
                  "name": "time-day"
                }
              ],
              "chance": 1,
              "method": {
                "url": "https:\/\/pokeapi.co\/api\/v2\/encounter-method\/1\/",
                "name": "walk"
              }
            }
          ]
        },
        {
          "max_chance": 5,
          "version": {
            "url": "https:\/\/pokeapi.co\/api\/v2\/version\/16\/",
            "name": "soulsilver"
          },
          "encounter_details": [
            {
              "min_level": 7,
              "max_level": 7,
              "condition_values": [
                {
                  "url": "https:\/\/pokeapi.co\/api\/v2\/encounter-condition-value\/4\/",
                  "name": "time-day"
                }
              ],
              "chance": 4,
              "method": {
                "url": "https:\/\/pokeapi.co\/api\/v2\/encounter-method\/1\/",
                "name": "walk"
              }
            },
            {
              "min_level": 7,
              "max_level": 7,
              "condition_values": [
                {
                  "url": "https:\/\/pokeapi.co\/api\/v2\/encounter-condition-value\/4\/",
                  "name": "time-day"
                }
              ],
              "chance": 1,
              "method": {
                "url": "https:\/\/pokeapi.co\/api\/v2\/encounter-method\/1\/",
                "name": "walk"
              }
            }
          ]
        }
      ],
      "pokemon": {
        "url": "https:\/\/pokeapi.co\/api\/v2\/pokemon\/17\/",
        "name": "pidgeotto"
      }
    },
    {
      "version_details": [
        {
          "max_chance": 40,
          "version": {
            "url": "https:\/\/pokeapi.co\/api\/v2\/version\/1\/",
            "name": "red"
          },
          "encounter_details": [
            {
              "min_level": 3,
              "max_level": 3,
              "condition_values": [],
              "chance": 20,
              "method": {
                "url": "https:\/\/pokeapi.co\/api\/v2\/encounter-method\/1\/",
                "name": "walk"
              }
            },
            {
              "min_level": 4,
              "max_level": 4,
              "condition_values": [],
              "chance": 10,
              "method": {
                "url": "https:\/\/pokeapi.co\/api\/v2\/encounter-method\/1\/",
                "name": "walk"
              }
            },
            {
              "min_level": 2,
              "max_level": 2,
              "condition_values": [],
              "chance": 5,
              "method": {
                "url": "https:\/\/pokeapi.co\/api\/v2\/encounter-method\/1\/",
                "name": "walk"
              }
            },
            {
              "min_level": 5,
              "max_level": 5,
              "condition_values": [],
              "chance": 5,
              "method": {
                "url": "https:\/\/pokeapi.co\/api\/v2\/encounter-method\/1\/",
                "name": "walk"
              }
            }
          ]
        },
        {
          "max_chance": 40,
          "version": {
            "url": "https:\/\/pokeapi.co\/api\/v2\/version\/2\/",
            "name": "blue"
          },
          "encounter_details": [
            {
              "min_level": 3,
              "max_level": 3,
              "condition_values": [],
              "chance": 20,
              "method": {
                "url": "https:\/\/pokeapi.co\/api\/v2\/encounter-method\/1\/",
                "name": "walk"
              }
            },
            {
              "min_level": 4,
              "max_level": 4,
              "condition_values": [],
              "chance": 10,
              "method": {
                "url": "https:\/\/pokeapi.co\/api\/v2\/encounter-method\/1\/",
                "name": "walk"
              }
            },
            {
              "min_level": 2,
              "max_level": 2,
              "condition_values": [],
              "chance": 5,
              "method": {
                "url": "https:\/\/pokeapi.co\/api\/v2\/encounter-method\/1\/",
                "name": "walk"
              }
            },
            {
              "min_level": 5,
              "max_level": 5,
              "condition_values": [],
              "chance": 5,
              "method": {
                "url": "https:\/\/pokeapi.co\/api\/v2\/encounter-method\/1\/",
                "name": "walk"
              }
            }
          ]
        },
        {
          "max_chance": 35,
          "version": {
            "url": "https:\/\/pokeapi.co\/api\/v2\/version\/3\/",
            "name": "yellow"
          },
          "encounter_details": [
            {
              "min_level": 3,
              "max_level": 3,
              "condition_values": [],
              "chance": 20,
              "method": {
                "url": "https:\/\/pokeapi.co\/api\/v2\/encounter-method\/1\/",
                "name": "walk"
              }
            },
            {
              "min_level": 4,
              "max_level": 4,
              "condition_values": [],
              "chance": 15,
              "method": {
                "url": "https:\/\/pokeapi.co\/api\/v2\/encounter-method\/1\/",
                "name": "walk"
              }
            }
          ]
        },
        {
          "max_chance": 45,
          "version": {
            "url": "https:\/\/pokeapi.co\/api\/v2\/version\/10\/",
            "name": "firered"
          },
          "encounter_details": [
            {
              "min_level": 3,
              "max_level": 3,
              "condition_values": [],
              "chance": 20,
              "method": {
                "url": "https:\/\/pokeapi.co\/api\/v2\/encounter-method\/1\/",
                "name": "walk"
              }
            },
            {
              "min_level": 4,
              "max_level": 4,
              "condition_values": [],
              "chance": 10,
              "method": {
                "url": "https:\/\/pokeapi.co\/api\/v2\/encounter-method\/1\/",
                "name": "walk"
              }
            },
            {
              "min_level": 2,
              "max_level": 2,
              "condition_values": [],
              "chance": 10,
              "method": {
                "url": "https:\/\/pokeapi.co\/api\/v2\/encounter-method\/1\/",
                "name": "walk"
              }
            },
            {
              "min_level": 5,
              "max_level": 5,
              "condition_values": [],
              "chance": 5,
              "method": {
                "url": "https:\/\/pokeapi.co\/api\/v2\/encounter-method\/1\/",
                "name": "walk"
              }
            }
          ]
        },
        {
          "max_chance": 45,
          "version": {
            "url": "https:\/\/pokeapi.co\/api\/v2\/version\/11\/",
            "name": "leafgreen"
          },
          "encounter_details": [
            {
              "min_level": 3,
              "max_level": 3,
              "condition_values": [],
              "chance": 20,
              "method": {
                "url": "https:\/\/pokeapi.co\/api\/v2\/encounter-method\/1\/",
                "name": "walk"
              }
            },
            {
              "min_level": 4,
              "max_level": 4,
              "condition_values": [],
              "chance": 10,
              "method": {
                "url": "https:\/\/pokeapi.co\/api\/v2\/encounter-method\/1\/",
                "name": "walk"
              }
            },
            {
              "min_level": 2,
              "max_level": 2,
              "condition_values": [],
              "chance": 10,
              "method": {
                "url": "https:\/\/pokeapi.co\/api\/v2\/encounter-method\/1\/",
                "name": "walk"
              }
            },
            {
              "min_level": 5,
              "max_level": 5,
              "condition_values": [],
              "chance": 5,
              "method": {
                "url": "https:\/\/pokeapi.co\/api\/v2\/encounter-method\/1\/",
                "name": "walk"
              }
            }
          ]
        }
      ],
      "pokemon": {
        "url": "https:\/\/pokeapi.co\/api\/v2\/pokemon\/19\/",
        "name": "rattata"
      }
    },
    {
      "version_details": [
        {
          "max_chance": 15,
          "version": {
            "url": "https:\/\/pokeapi.co\/api\/v2\/version\/3\/",
            "name": "yellow"
          },
          "encounter_details": [
            {
              "min_level": 4,
              "max_level": 4,
              "condition_values": [],
              "chance": 10,
              "method": {
                "url": "https:\/\/pokeapi.co\/api\/v2\/encounter-method\/1\/",
                "name": "walk"
              }
            },
            {
              "min_level": 6,
              "max_level": 6,
              "condition_values": [],
              "chance": 5,
              "method": {
                "url": "https:\/\/pokeapi.co\/api\/v2\/encounter-method\/1\/",
                "name": "walk"
              }
            }
          ]
        }
      ],
      "pokemon": {
        "url": "https:\/\/pokeapi.co\/api\/v2\/pokemon\/29\/",
        "name": "nidoran-f"
      }
    },
    {
      "version_details": [
        {
          "max_chance": 15,
          "version": {
            "url": "https:\/\/pokeapi.co\/api\/v2\/version\/3\/",
            "name": "yellow"
          },
          "encounter_details": [
            {
              "min_level": 4,
              "max_level": 4,
              "condition_values": [],
              "chance": 10,
              "method": {
                "url": "https:\/\/pokeapi.co\/api\/v2\/encounter-method\/1\/",
                "name": "walk"
              }
            },
            {
              "min_level": 6,
              "max_level": 6,
              "condition_values": [],
              "chance": 5,
              "method": {
                "url": "https:\/\/pokeapi.co\/api\/v2\/encounter-method\/1\/",
                "name": "walk"
              }
            }
          ]
        }
      ],
      "pokemon": {
        "url": "https:\/\/pokeapi.co\/api\/v2\/pokemon\/32\/",
        "name": "nidoran-m"
      }
    },
    {
      "version_details": [
        {
          "max_chance": 50,
          "version": {
            "url": "https:\/\/pokeapi.co\/api\/v2\/version\/15\/",
            "name": "heartgold"
          },
          "encounter_details": [
            {
              "min_level": 3,
              "max_level": 3,
              "condition_values": [
                {
                  "url": "https:\/\/pokeapi.co\/api\/v2\/encounter-condition-value\/5\/",
                  "name": "time-night"
                }
              ],
              "chance": 20,
              "method": {
                "url": "https:\/\/pokeapi.co\/api\/v2\/encounter-method\/1\/",
                "name": "walk"
              }
            },
            {
              "min_level": 3,
              "max_level": 3,
              "condition_values": [
                {
                  "url": "https:\/\/pokeapi.co\/api\/v2\/encounter-condition-value\/14\/",
                  "name": "radio-off"
                },
                {
                  "url": "https:\/\/pokeapi.co\/api\/v2\/encounter-condition-value\/5\/",
                  "name": "time-night"
                }
              ],
              "chance": 10,
              "method": {
                "url": "https:\/\/pokeapi.co\/api\/v2\/encounter-method\/1\/",
                "name": "walk"
              }
            },
            {
              "min_level": 5,
              "max_level": 5,
              "condition_values": [
                {
                  "url": "https:\/\/pokeapi.co\/api\/v2\/encounter-condition-value\/14\/",
                  "name": "radio-off"
                },
                {
                  "url": "https:\/\/pokeapi.co\/api\/v2\/encounter-condition-value\/5\/",
                  "name": "time-night"
                }
              ],
              "chance": 10,
              "method": {
                "url": "https:\/\/pokeapi.co\/api\/v2\/encounter-method\/1\/",
                "name": "walk"
              }
            },
            {
              "min_level": 5,
              "max_level": 5,
              "condition_values": [
                {
                  "url": "https:\/\/pokeapi.co\/api\/v2\/encounter-condition-value\/14\/",
                  "name": "radio-off"
                },
                {
                  "url": "https:\/\/pokeapi.co\/api\/v2\/encounter-condition-value\/5\/",
                  "name": "time-night"
                }
              ],
              "chance": 10,
              "method": {
                "url": "https:\/\/pokeapi.co\/api\/v2\/encounter-method\/1\/",
                "name": "walk"
              }
            }
          ]
        },
        {
          "max_chance": 60,
          "version": {
            "url": "https:\/\/pokeapi.co\/api\/v2\/version\/16\/",
            "name": "soulsilver"
          },
          "encounter_details": [
            {
              "min_level": 3,
              "max_level": 3,
              "condition_values": [
                {
                  "url": "https:\/\/pokeapi.co\/api\/v2\/encounter-condition-value\/5\/",
                  "name": "time-night"
                }
              ],
              "chance": 20,
              "method": {
                "url": "https:\/\/pokeapi.co\/api\/v2\/encounter-method\/1\/",
                "name": "walk"
              }
            },
            {
              "min_level": 3,
              "max_level": 3,
              "condition_values": [
                {
                  "url": "https:\/\/pokeapi.co\/api\/v2\/encounter-condition-value\/5\/",
                  "name": "time-night"
                }
              ],
              "chance": 20,
              "method": {
                "url": "https:\/\/pokeapi.co\/api\/v2\/encounter-method\/1\/",
                "name": "walk"
              }
            },
            {
              "min_level": 3,
              "max_level": 3,
              "condition_values": [
                {
                  "url": "https:\/\/pokeapi.co\/api\/v2\/encounter-condition-value\/14\/",
                  "name": "radio-off"
                },
                {
                  "url": "https:\/\/pokeapi.co\/api\/v2\/encounter-condition-value\/5\/",
                  "name": "time-night"
                }
              ],
              "chance": 10,
              "method": {
                "url": "https:\/\/pokeapi.co\/api\/v2\/encounter-method\/1\/",
                "name": "walk"
              }
            },
            {
              "min_level": 5,
              "max_level": 5,
              "condition_values": [
                {
                  "url": "https:\/\/pokeapi.co\/api\/v2\/encounter-condition-value\/14\/",
                  "name": "radio-off"
                },
                {
                  "url": "https:\/\/pokeapi.co\/api\/v2\/encounter-condition-value\/5\/",
                  "name": "time-night"
                }
              ],
              "chance": 10,
              "method": {
                "url": "https:\/\/pokeapi.co\/api\/v2\/encounter-method\/1\/",
                "name": "walk"
              }
            }
          ]
        }
      ],
      "pokemon": {
        "url": "https:\/\/pokeapi.co\/api\/v2\/pokemon\/163\/",
        "name": "hoothoot"
      }
    },
    {
      "version_details": [
        {
          "max_chance": 14,
          "version": {
            "url": "https:\/\/pokeapi.co\/api\/v2\/version\/15\/",
            "name": "heartgold"
          },
          "encounter_details": [
            {
              "min_level": 7,
              "max_level": 7,
              "condition_values": [
                {
                  "url": "https:\/\/pokeapi.co\/api\/v2\/encounter-condition-value\/5\/",
                  "name": "time-night"
                }
              ],
              "chance": 5,
              "method": {
                "url": "https:\/\/pokeapi.co\/api\/v2\/encounter-method\/1\/",
                "name": "walk"
              }
            },
            {
              "min_level": 8,
              "max_level": 8,
              "condition_values": [
                {
                  "url": "https:\/\/pokeapi.co\/api\/v2\/encounter-condition-value\/5\/",
                  "name": "time-night"
                }
              ],
              "chance": 5,
              "method": {
                "url": "https:\/\/pokeapi.co\/api\/v2\/encounter-method\/1\/",
                "name": "walk"
              }
            },
            {
              "min_level": 10,
              "max_level": 10,
              "condition_values": [
                {
                  "url": "https:\/\/pokeapi.co\/api\/v2\/encounter-condition-value\/5\/",
                  "name": "time-night"
                }
              ],
              "chance": 4,
              "method": {
                "url": "https:\/\/pokeapi.co\/api\/v2\/encounter-method\/1\/",
                "name": "walk"
              }
            }
          ]
        },
        {
          "max_chance": 14,
          "version": {
            "url": "https:\/\/pokeapi.co\/api\/v2\/version\/16\/",
            "name": "soulsilver"
          },
          "encounter_details": [
            {
              "min_level": 7,
              "max_level": 7,
              "condition_values": [
                {
                  "url": "https:\/\/pokeapi.co\/api\/v2\/encounter-condition-value\/5\/",
                  "name": "time-night"
                }
              ],
              "chance": 5,
              "method": {
                "url": "https:\/\/pokeapi.co\/api\/v2\/encounter-method\/1\/",
                "name": "walk"
              }
            },
            {
              "min_level": 7,
              "max_level": 7,
              "condition_values": [
                {
                  "url": "https:\/\/pokeapi.co\/api\/v2\/encounter-condition-value\/5\/",
                  "name": "time-night"
                }
              ],
              "chance": 5,
              "method": {
                "url": "https:\/\/pokeapi.co\/api\/v2\/encounter-method\/1\/",
                "name": "walk"
              }
            },
            {
              "min_level": 7,
              "max_level": 7,
              "condition_values": [
                {
                  "url": "https:\/\/pokeapi.co\/api\/v2\/encounter-condition-value\/5\/",
                  "name": "time-night"
                }
              ],
              "chance": 4,
              "method": {
                "url": "https:\/\/pokeapi.co\/api\/v2\/encounter-method\/1\/",
                "name": "walk"
              }
            }
          ]
        }
      ],
      "pokemon": {
        "url": "https:\/\/pokeapi.co\/api\/v2\/pokemon\/164\/",
        "name": "noctowl"
      }
    },
    {
      "version_details": [
        {
          "max_chance": 34,
          "version": {
            "url": "https:\/\/pokeapi.co\/api\/v2\/version\/16\/",
            "name": "soulsilver"
          },
          "encounter_details": [
            {
              "min_level": 3,
              "max_level": 3,
              "condition_values": [
                {
                  "url": "https:\/\/pokeapi.co\/api\/v2\/encounter-condition-value\/3\/",
                  "name": "time-morning"
                }
              ],
              "chance": 20,
              "method": {
                "url": "https:\/\/pokeapi.co\/api\/v2\/encounter-method\/1\/",
                "name": "walk"
              }
            },
            {
              "min_level": 3,
              "max_level": 3,
              "condition_values": [
                {
                  "url": "https:\/\/pokeapi.co\/api\/v2\/encounter-condition-value\/14\/",
                  "name": "radio-off"
                },
                {
                  "url": "https:\/\/pokeapi.co\/api\/v2\/encounter-condition-value\/3\/",
                  "name": "time-morning"
                }
              ],
              "chance": 10,
              "method": {
                "url": "https:\/\/pokeapi.co\/api\/v2\/encounter-method\/1\/",
                "name": "walk"
              }
            },
            {
              "min_level": 10,
              "max_level": 10,
              "condition_values": [
                {
                  "url": "https:\/\/pokeapi.co\/api\/v2\/encounter-condition-value\/4\/",
                  "name": "time-day"
                }
              ],
              "chance": 4,
              "method": {
                "url": "https:\/\/pokeapi.co\/api\/v2\/encounter-method\/1\/",
                "name": "walk"
              }
            }
          ]
        }
      ],
      "pokemon": {
        "url": "https:\/\/pokeapi.co\/api\/v2\/pokemon\/165\/",
        "name": "ledyba"
      }
    },
    {
      "version_details": [
        {
          "max_chance": 9,
          "version": {
            "url": "https:\/\/pokeapi.co\/api\/v2\/version\/16\/",
            "name": "soulsilver"
          },
          "encounter_details": [
            {
              "min_level": 7,
              "max_level": 7,
              "condition_values": [
                {
                  "url": "https:\/\/pokeapi.co\/api\/v2\/encounter-condition-value\/3\/",
                  "name": "time-morning"
                }
              ],
              "chance": 4,
              "method": {
                "url": "https:\/\/pokeapi.co\/api\/v2\/encounter-method\/1\/",
                "name": "walk"
              }
            },
            {
              "min_level": 10,
              "max_level": 10,
              "condition_values": [
                {
                  "url": "https:\/\/pokeapi.co\/api\/v2\/encounter-condition-value\/3\/",
                  "name": "time-morning"
                }
              ],
              "chance": 4,
              "method": {
                "url": "https:\/\/pokeapi.co\/api\/v2\/encounter-method\/1\/",
                "name": "walk"
              }
            },
            {
              "min_level": 7,
              "max_level": 7,
              "condition_values": [
                {
                  "url": "https:\/\/pokeapi.co\/api\/v2\/encounter-condition-value\/3\/",
                  "name": "time-morning"
                }
              ],
              "chance": 1,
              "method": {
                "url": "https:\/\/pokeapi.co\/api\/v2\/encounter-method\/1\/",
                "name": "walk"
              }
            }
          ]
        }
      ],
      "pokemon": {
        "url": "https:\/\/pokeapi.co\/api\/v2\/pokemon\/166\/",
        "name": "ledian"
      }
    },
    {
      "version_details": [
        {
          "max_chance": 35,
          "version": {
            "url": "https:\/\/pokeapi.co\/api\/v2\/version\/15\/",
            "name": "heartgold"
          },
          "encounter_details": [
            {
              "min_level": 3,
              "max_level": 3,
              "condition_values": [
                {
                  "url": "https:\/\/pokeapi.co\/api\/v2\/encounter-condition-value\/5\/",
                  "name": "time-night"
                }
              ],
              "chance": 20,
              "method": {
                "url": "https:\/\/pokeapi.co\/api\/v2\/encounter-method\/1\/",
                "name": "walk"
              }
            },
            {
              "min_level": 3,
              "max_level": 3,
              "condition_values": [
                {
                  "url": "https:\/\/pokeapi.co\/api\/v2\/encounter-condition-value\/14\/",
                  "name": "radio-off"
                },
                {
                  "url": "https:\/\/pokeapi.co\/api\/v2\/encounter-condition-value\/5\/",
                  "name": "time-night"
                }
              ],
              "chance": 10,
              "method": {
                "url": "https:\/\/pokeapi.co\/api\/v2\/encounter-method\/1\/",
                "name": "walk"
              }
            },
            {
              "min_level": 10,
              "max_level": 10,
              "condition_values": [
                {
                  "url": "https:\/\/pokeapi.co\/api\/v2\/encounter-condition-value\/3\/",
                  "name": "time-morning"
                }
              ],
              "chance": 4,
              "method": {
                "url": "https:\/\/pokeapi.co\/api\/v2\/encounter-method\/1\/",
                "name": "walk"
              }
            },
            {
              "min_level": 4,
              "max_level": 4,
              "condition_values": [
                {
                  "url": "https:\/\/pokeapi.co\/api\/v2\/encounter-condition-value\/5\/",
                  "name": "time-night"
                }
              ],
              "chance": 1,
              "method": {
                "url": "https:\/\/pokeapi.co\/api\/v2\/encounter-method\/1\/",
                "name": "walk"
              }
            }
          ]
        }
      ],
      "pokemon": {
        "url": "https:\/\/pokeapi.co\/api\/v2\/pokemon\/167\/",
        "name": "spinarak"
      }
    },
    {
      "version_details": [
        {
          "max_chance": 5,
          "version": {
            "url": "https:\/\/pokeapi.co\/api\/v2\/version\/15\/",
            "name": "heartgold"
          },
          "encounter_details": [
            {
              "min_level": 7,
              "max_level": 7,
              "condition_values": [
                {
                  "url": "https:\/\/pokeapi.co\/api\/v2\/encounter-condition-value\/5\/",
                  "name": "time-night"
                }
              ],
              "chance": 4,
              "method": {
                "url": "https:\/\/pokeapi.co\/api\/v2\/encounter-method\/1\/",
                "name": "walk"
              }
            },
            {
              "min_level": 7,
              "max_level": 7,
              "condition_values": [
                {
                  "url": "https:\/\/pokeapi.co\/api\/v2\/encounter-condition-value\/5\/",
                  "name": "time-night"
                }
              ],
              "chance": 1,
              "method": {
                "url": "https:\/\/pokeapi.co\/api\/v2\/encounter-method\/1\/",
                "name": "walk"
              }
            }
          ]
        }
      ],
      "pokemon": {
        "url": "https:\/\/pokeapi.co\/api\/v2\/pokemon\/168\/",
        "name": "ariados"
      }
    },
    {
      "version_details": [
        {
          "max_chance": 20,
          "version": {
            "url": "https:\/\/pokeapi.co\/api\/v2\/version\/15\/",
            "name": "heartgold"
          },
          "encounter_details": [
            {
              "min_level": 3,
              "max_level": 3,
              "condition_values": [
                {
                  "url": "https:\/\/pokeapi.co\/api\/v2\/encounter-condition-value\/15\/",
                  "name": "radio-hoenn"
                }
              ],
              "chance": 10,
              "method": {
                "url": "https:\/\/pokeapi.co\/api\/v2\/encounter-method\/1\/",
                "name": "walk"
              }
            },
            {
              "min_level": 3,
              "max_level": 3,
              "condition_values": [
                {
                  "url": "https:\/\/pokeapi.co\/api\/v2\/encounter-condition-value\/15\/",
                  "name": "radio-hoenn"
                }
              ],
              "chance": 10,
              "method": {
                "url": "https:\/\/pokeapi.co\/api\/v2\/encounter-method\/1\/",
                "name": "walk"
              }
            }
          ]
        },
        {
          "max_chance": 20,
          "version": {
            "url": "https:\/\/pokeapi.co\/api\/v2\/version\/16\/",
            "name": "soulsilver"
          },
          "encounter_details": [
            {
              "min_level": 3,
              "max_level": 3,
              "condition_values": [
                {
                  "url": "https:\/\/pokeapi.co\/api\/v2\/encounter-condition-value\/15\/",
                  "name": "radio-hoenn"
                }
              ],
              "chance": 10,
              "method": {
                "url": "https:\/\/pokeapi.co\/api\/v2\/encounter-method\/1\/",
                "name": "walk"
              }
            },
            {
              "min_level": 3,
              "max_level": 3,
              "condition_values": [
                {
                  "url": "https:\/\/pokeapi.co\/api\/v2\/encounter-condition-value\/15\/",
                  "name": "radio-hoenn"
                }
              ],
              "chance": 10,
              "method": {
                "url": "https:\/\/pokeapi.co\/api\/v2\/encounter-method\/1\/",
                "name": "walk"
              }
            }
          ]
        }
      ],
      "pokemon": {
        "url": "https:\/\/pokeapi.co\/api\/v2\/pokemon\/311\/",
        "name": "plusle"
      }
    },
    {
      "version_details": [
        {
          "max_chance": 20,
          "version": {
            "url": "https:\/\/pokeapi.co\/api\/v2\/version\/15\/",
            "name": "heartgold"
          },
          "encounter_details": [
            {
              "min_level": 5,
              "max_level": 5,
              "condition_values": [
                {
                  "url": "https:\/\/pokeapi.co\/api\/v2\/encounter-condition-value\/15\/",
                  "name": "radio-hoenn"
                }
              ],
              "chance": 10,
              "method": {
                "url": "https:\/\/pokeapi.co\/api\/v2\/encounter-method\/1\/",
                "name": "walk"
              }
            },
            {
              "min_level": 5,
              "max_level": 5,
              "condition_values": [
                {
                  "url": "https:\/\/pokeapi.co\/api\/v2\/encounter-condition-value\/15\/",
                  "name": "radio-hoenn"
                }
              ],
              "chance": 10,
              "method": {
                "url": "https:\/\/pokeapi.co\/api\/v2\/encounter-method\/1\/",
                "name": "walk"
              }
            }
          ]
        },
        {
          "max_chance": 20,
          "version": {
            "url": "https:\/\/pokeapi.co\/api\/v2\/version\/16\/",
            "name": "soulsilver"
          },
          "encounter_details": [
            {
              "min_level": 5,
              "max_level": 5,
              "condition_values": [
                {
                  "url": "https:\/\/pokeapi.co\/api\/v2\/encounter-condition-value\/15\/",
                  "name": "radio-hoenn"
                }
              ],
              "chance": 10,
              "method": {
                "url": "https:\/\/pokeapi.co\/api\/v2\/encounter-method\/1\/",
                "name": "walk"
              }
            },
            {
              "min_level": 5,
              "max_level": 5,
              "condition_values": [
                {
                  "url": "https:\/\/pokeapi.co\/api\/v2\/encounter-condition-value\/15\/",
                  "name": "radio-hoenn"
                }
              ],
              "chance": 10,
              "method": {
                "url": "https:\/\/pokeapi.co\/api\/v2\/encounter-method\/1\/",
                "name": "walk"
              }
            }
          ]
        }
      ],
      "pokemon": {
        "url": "https:\/\/pokeapi.co\/api\/v2\/pokemon\/312\/",
        "name": "minun"
      }
    },
    {
      "version_details": [
        {
          "max_chance": 40,
          "version": {
            "url": "https:\/\/pokeapi.co\/api\/v2\/version\/15\/",
            "name": "heartgold"
          },
          "encounter_details": [
            {
              "min_level": 3,
              "max_level": 3,
              "condition_values": [
                {
                  "url": "https:\/\/pokeapi.co\/api\/v2\/encounter-condition-value\/16\/",
                  "name": "radio-sinnoh"
                }
              ],
              "chance": 10,
              "method": {
                "url": "https:\/\/pokeapi.co\/api\/v2\/encounter-method\/1\/",
                "name": "walk"
              }
            },
            {
              "min_level": 3,
              "max_level": 3,
              "condition_values": [
                {
                  "url": "https:\/\/pokeapi.co\/api\/v2\/encounter-condition-value\/16\/",
                  "name": "radio-sinnoh"
                }
              ],
              "chance": 10,
              "method": {
                "url": "https:\/\/pokeapi.co\/api\/v2\/encounter-method\/1\/",
                "name": "walk"
              }
            },
            {
              "min_level": 5,
              "max_level": 5,
              "condition_values": [
                {
                  "url": "https:\/\/pokeapi.co\/api\/v2\/encounter-condition-value\/16\/",
                  "name": "radio-sinnoh"
                }
              ],
              "chance": 10,
              "method": {
                "url": "https:\/\/pokeapi.co\/api\/v2\/encounter-method\/1\/",
                "name": "walk"
              }
            },
            {
              "min_level": 5,
              "max_level": 5,
              "condition_values": [
                {
                  "url": "https:\/\/pokeapi.co\/api\/v2\/encounter-condition-value\/16\/",
                  "name": "radio-sinnoh"
                }
              ],
              "chance": 10,
              "method": {
                "url": "https:\/\/pokeapi.co\/api\/v2\/encounter-method\/1\/",
                "name": "walk"
              }
            }
          ]
        },
        {
          "max_chance": 40,
          "version": {
            "url": "https:\/\/pokeapi.co\/api\/v2\/version\/16\/",
            "name": "soulsilver"
          },
          "encounter_details": [
            {
              "min_level": 3,
              "max_level": 3,
              "condition_values": [
                {
                  "url": "https:\/\/pokeapi.co\/api\/v2\/encounter-condition-value\/16\/",
                  "name": "radio-sinnoh"
                }
              ],
              "chance": 10,
              "method": {
                "url": "https:\/\/pokeapi.co\/api\/v2\/encounter-method\/1\/",
                "name": "walk"
              }
            },
            {
              "min_level": 3,
              "max_level": 3,
              "condition_values": [
                {
                  "url": "https:\/\/pokeapi.co\/api\/v2\/encounter-condition-value\/16\/",
                  "name": "radio-sinnoh"
                }
              ],
              "chance": 10,
              "method": {
                "url": "https:\/\/pokeapi.co\/api\/v2\/encounter-method\/1\/",
                "name": "walk"
              }
            },
            {
              "min_level": 5,
              "max_level": 5,
              "condition_values": [
                {
                  "url": "https:\/\/pokeapi.co\/api\/v2\/encounter-condition-value\/16\/",
                  "name": "radio-sinnoh"
                }
              ],
              "chance": 10,
              "method": {
                "url": "https:\/\/pokeapi.co\/api\/v2\/encounter-method\/1\/",
                "name": "walk"
              }
            },
            {
              "min_level": 5,
              "max_level": 5,
              "condition_values": [
                {
                  "url": "https:\/\/pokeapi.co\/api\/v2\/encounter-condition-value\/16\/",
                  "name": "radio-sinnoh"
                }
              ],
              "chance": 10,
              "method": {
                "url": "https:\/\/pokeapi.co\/api\/v2\/encounter-method\/1\/",
                "name": "walk"
              }
            }
          ]
        }
      ],
      "pokemon": {
        "url": "https:\/\/pokeapi.co\/api\/v2\/pokemon\/403\/",
        "name": "shinx"
      }
    }
  ],
  "id": 296,
  "game_index": 113
}