{
  "formatVersion": 1,
  "database": {
    "version": 1,
    "identityHash": "ca0136f78c2cd1350e692cd22b6aed56",
    "entities": [
      {
        "tableName": "Pokemon",
        "createSql": "CREATE TABLE IF NOT EXISTS `${TABLE_NAME}` (`id` INTEGER NOT NULL, `order` INTEGER NOT NULL, `name` TEXT NOT NULL, `spriteUrl` TEXT NOT NULL, `sprite_animUrl` TEXT NOT NULL, `weight` REAL NOT NULL, `height` REAL NOT NULL, `found` INTEGER NOT NULL, `sprite` BLOB, `sprite_anim` BLOB, PRIMARY KEY(`id`))",
        "fields": [
          {
            "fieldPath": "id",
            "columnName": "id",
            "affinity": "INTEGER",
            "notNull": true
          },
          {
            "fieldPath": "order",
            "columnName": "order",
            "affinity": "INTEGER",
            "notNull": true
          },
          {
            "fieldPath": "name",
            "columnName": "name",
            "affinity": "TEXT",
            "notNull": true
          },
          {
            "fieldPath": "spriteUrl",
            "columnName": "spriteUrl",
            "affinity": "TEXT",
            "notNull": true
          },
          {
            "fieldPath": "sprite_animUrl",
            "columnName": "sprite_animUrl",
            "affinity": "TEXT",
            "notNull": true
          },
          {
            "fieldPath": "weight",
            "columnName": "weight",
            "affinity": "REAL",
            "notNull": true
          },
          {
            "fieldPath": "height",
            "columnName": "height",
            "affinity": "REAL",
            "notNull": true
          },
          {
            "fieldPath": "found",
            "columnName": "found",
            "affinity": "INTEGER",
            "notNull": true
          },
          {
            "fieldPath": "sprite",
            "columnName": "sprite",
            "affinity": "BLOB",
            "notNull": false
          },
          {
            "fieldPath": "sprite_anim",
            "columnName": "sprite_anim",
            "affinity": "BLOB",
            "notNull": false
          }
        ],
        "primaryKey": {
          "columnNames": [
            "id"
          ],
          "autoGenerate": false
        },
        "indices": [],
        "foreignKeys": []
      },
      {
        "tableName": "pokemon_type",
        "createSql": "CREATE TABLE IF NOT EXISTS `${TABLE_NAME}` (`id` INTEGER NOT NULL, `url` TEXT NOT NULL, `name` TEXT NOT NULL, PRIMARY KEY(`id`))",
        "fields": [
          {
            "fieldPath": "id",
            "columnName": "id",
            "affinity": "INTEGER",
            "notNull": true
          },
          {
            "fieldPath": "url",
            "columnName": "url",
            "affinity": "TEXT",
            "notNull": true
          },
          {
            "fieldPath": "name",
            "columnName": "name",
            "affinity": "TEXT",
            "notNull": true
          }
        ],
        "primaryKey": {
          "columnNames": [
            "id"
          ],
          "autoGenerate": false
        },
        "indices": [],
        "foreignKeys": []
      },
      {
        "tableName": "pokemon_type_join",
        "createSql": "CREATE TABLE IF NOT EXISTS `${TABLE_NAME}` (`pokemonId` INTEGER NOT NULL, `typeId` INTEGER NOT NULL, PRIMARY KEY(`pokemonId`, `typeId`), FOREIGN KEY(`pokemonId`) REFERENCES `Pokemon`(`id`) ON UPDATE NO ACTION ON DELETE NO ACTION , FOREIGN KEY(`typeId`) REFERENCES `pokemon_type`(`id`) ON UPDATE NO ACTION ON DELETE NO ACTION )",
        "fields": [
          {
            "fieldPath": "pokemonId",
            "columnName": "pokemonId",
            "affinity": "INTEGER",
            "notNull": true
          },
          {
            "fieldPath": "typeId",
            "columnName": "typeId",
            "affinity": "INTEGER",
            "notNull": true
          }
        ],
        "primaryKey": {
          "columnNames": [
            "pokemonId",
            "typeId"
          ],
          "autoGenerate": false
        },
        "indices": [],
        "foreignKeys": [
          {
            "table": "Pokemon",
            "onDelete": "NO ACTION",
            "onUpdate": "NO ACTION",
            "columns": [
              "pokemonId"
            ],
            "referencedColumns": [
              "id"
            ]
          },
          {
            "table": "pokemon_type",
            "onDelete": "NO ACTION",
            "onUpdate": "NO ACTION",
            "columns": [
              "typeId"
            ],
            "referencedColumns": [
              "id"
            ]
          }
        ]
      }
    ],
    "setupQueries": [
      "CREATE TABLE IF NOT EXISTS room_master_table (id INTEGER PRIMARY KEY,identity_hash TEXT)",
      "INSERT OR REPLACE INTO room_master_table (id,identity_hash) VALUES(42, \"ca0136f78c2cd1350e692cd22b6aed56\")"
    ]
  }
}